{
    "antifeatures": {
        "Ads": "Az alkalmazás reklámot tartalmaz",
        "DisabledAlgorithm": "Az alkalmazásnak gyenge a biztonsági aláírása",
        "KnownVuln": "Az alkalmazás ismert biztonsági rést tartalmaz",
        "NoSourceSince": "A forráskód többé nem érhető el, a frissítések nem lehetségesek",
        "NonFreeAdd": "Az alkalmazás nem szabad szoftver kiegészítőket támogat",
        "NonFreeAssets": "Az alkalmazás nem szabad szoftveres eszközöket tartalmaz",
        "NonFreeDep": "Az alkalmazás egyéb, nem szabad alkalmazásoktól függ",
        "NonFreeNet": "Az alkalmazás nem szabad szoftver alapú hálózati szolgáltatásokat támogat",
        "Tracking": "Az alkalmazás nyomon követi és jelenti a tevékenységeit",
        "UpstreamNonFree": "Az upstream forráskód nem teljesen szabad"
    },
    "app_categories": {
        "Connectivity": "Kapcsolódás",
        "Development": "Fejlesztés",
        "Games": "Játékok",
        "Graphics": "Grafika",
        "Internet": "Internet",
        "Money": "Pénzügyek",
        "Multimedia": "Multimédia",
        "Navigation": "Navigáció",
        "Phone & SMS": "Telefon és SMS",
        "Reading": "Olvasás",
        "Science & Education": "Tudomány és oktatás",
        "Security": "Biztonság",
        "Sports & Health": "Sport és egészség",
        "System": "Rendszer",
        "Theming": "Stílus",
        "Time": "Idő",
        "Writing": "Írás",
        "show_all_packages": "%d megtekintése"
    },
    "index": {
        "download_fdroid": "F-Droid letöltése",
        "gpg_signature": "PGP aláírás",
        "introduction": "Az F-Droid szabad és nyílt forráskódú alkalmazások telepíthető katalógusa az Android platformhoz. A kliens egyszerűvé teszi a böngészést, a telepítést és a frissítések nyomon követését az eszközén.",
        "screenshot": "F-Droid Android alkalmazás képernyőkép",
        "title": "Mi az F-Droid?"
    },
    "navigation": {
        "about": "Névjegy",
        "contribute": "Közreműködés",
        "documentation": "Dokumentáció",
        "forum": "Fórum",
        "issues": "Problémák",
        "news": "Hírek"
    },
    "package": {
        "added_on": "Hozzáadva: {{ package_added_date }}",
        "anti_features": "Anti-jellemzők",
        "anti_features_warning": "Ez az app olyan jellemzővel bír, amit nem biztos hogy kedvelni fog.",
        "author": "Szerző",
        "build_metadata": "Összeállítási metaadatok",
        "changelog": "Változásnapló",
        "donate": "Adományozás",
        "download": "{{ file_extension }} letöltése",
        "flattr": "Flattr",
        "gpg_signature": "PGP aláírás",
        "issue_tracker": "Problémakövető",
        "liberapay": "Liberapay",
        "license": "Licenc",
        "minimum_android_version": "Ez a verzió Android {{ android_version }} vagy újabb verziót igényel.",
        "new_in_version": "Újdonságok a(z) {{ latest_version }}. verzióban",
        "packages": "Csomagok",
        "permissions": "Engedélyek",
        "signed_by_developer": "Az eredeti fejlesztő állította össze és írta alá.",
        "signed_by_fdroid": "Az F-Droid állította össze és írta alá, és garantáltan megfelel <a href=\"{{ source_code_url }}\">ennek a forráscsomagnak</a>.",
        "source_code": "Forráskód",
        "suggest_downloading_via_fdroid": "Habár az APK letöltések elérhetők lent választási lehetőségként, tisztában kell lennie azzal, hogy az ily módon történt telepítés nem kap frissítési értesítéseket, és kevésbé biztonságos módja a letöltésnek. Azt javasoljuk, hogy telepítse az F-Droid klienst, és azt használja.",
        "suggested": "javasolt",
        "technical_info": "Technikai információk",
        "translation": "Fordítás",
        "version_info": "<b>Verzió: {{ package_version }}</b> ({{ package_version_code }})",
        "website": "Weboldal"
    },
    "permissions": {
        "permdesc_acceptHandovers": "Engedélyezi az alkalmazásnak, hogy folytassa a hívást, amelyet valamelyik másik alkalmazásban kezdtek meg.",
        "permdesc_accessBackgroundLocation": "Ha engedélyezi ezt a hozzávetőleges vagy pontos helyadatokhoz való hozzáférés mellett, akkor az alkalmazás hozzáférhet a helyadatokhoz, miközben a háttérben fut.",
        "permdesc_accessCoarseLocation": "Ez az alkalmazás hozzáférhet a hálózati forrásokon (például az adótornyokon és a Wi-Fi-hálózatokon) alapuló helyadataihoz, de csak akkor, amikor az előtérben fut. A helyszolgáltatásoknak bekapcsolt és hozzáférhető állapotban kell lenniük a telefonon ahhoz, hogy az alkalmazás használhassa őket.",
        "permdesc_accessDrmCertificates": "Engedélyezi egy alkalmazás számára a DRM-tanúsítványokhoz való hozzáférést és azok használatát. Átlagos alkalmazásoknak erre nem lehet szükségük.",
        "permdesc_accessFineLocation": "Ez az alkalmazás csak akkor férhet hozzá az eszköz pontos helyadataihoz, amikor az előtérben fut. A helyszolgáltatásoknak bekapcsolt és hozzáférhető állapotban kell lenniük a telefonon ahhoz, hogy az alkalmazás használhassa őket. Ez növelheti az akkumulátorhasználatot.",
        "permdesc_accessImsCallService": "Az alkalmazás az IMS-szolgáltatást használhatja híváskezdeményezéshez az Ön közbeavatkozása nélkül.",
        "permdesc_accessLocationExtraCommands": "Lehetővé teszi az alkalmazás számára további helyszolgáltatói parancsok elérését. Ezáltal az alkalmazás beavatkozhat a GPS vagy más helyforrások működésébe.",
        "permdesc_accessNetworkConditions": "Lehetővé teszi egy alkalmazás számára, hogy figyelemmel kísérje a hálózati körülményekkel kapcsolatos észrevételeket. A normál alkalmazásoknak erre soha nincs szükségük.",
        "permdesc_accessNetworkState": "Lehetővé teszi az alkalmazás számára, hogy hozzáférjen hálózati kapcsolatokra vonatkozó információkhoz, például melyek létező hálózatok, és melyek vannak csatlakoztatva.",
        "permdesc_accessNotifications": "Lehetővé teszi, hogy az alkalmazás értesítéseket kérdezzen le, vizsgáljon és tisztítson meg, beleértve az egyéb alkalmazások által közzétett értesítéseket is.",
        "permdesc_accessWifiState": "Lehetővé teszi az alkalmazás számára, hogy hozzáférjen Wi-Fi hálózati információkhoz: például, hogy engedélyezve van-e a Wi-Fi, valamint a csatlakoztatott Wi-Fi eszközök nevéhez.",
        "permdesc_accessWimaxState": "Lehetővé teszi az alkalmazás számára, hogy ellenőrizze, a WiMax engedélyezve van-e, valamint hogy információt gyűjtsön a csatlakoztatott WiMax-hálózatokról.",
        "permdesc_access_notification_policy": "Az alkalmazás olvashatja és szerkesztheti a „Ne zavarjanak” funkció beállításait.",
        "permdesc_activityRecognition": "Az alkalmazás képes felismerni a testmozgást.",
        "permdesc_addVoicemail": "Lehetővé teszi az alkalmazás számára, hogy üzeneteket adjon hozzá bejövő hangpostájához.",
        "permdesc_answerPhoneCalls": "Engedélyezi az alkalmazásnak, hogy válaszoljon a bejövő hívásokra.",
        "permdesc_audioWrite": "Engedélyezi az alkalmazásnak a zenei gyűjtemény módosítását.",
        "permdesc_bindCarrierMessagingService": "Lehetővé teszi, hogy a tulajdonos kapcsolódjon egy üzenetszolgáltatás legfelső szintű kezelőfelületéhez. A normál alkalmazásoknak erre soha nincs szükségük.",
        "permdesc_bindCarrierServices": "Lehetővé teszi a tulajdonos számára a szolgáltatókhoz való kapcsolódást. A normál alkalmazások esetében erre nincs szükség.",
        "permdesc_bindConditionProviderService": "Lehetővé teszi a használó számára, hogy csatlakozzon egy feltételbiztosító szolgáltatás legfelső szintű kezelőfelületéhez. A normál alkalmazásoknak erre soha nincs szükségük.",
        "permdesc_bindDreamService": "Lehetővé teszi a használó számára, hogy csatlakozzon egy képernyővédő szolgáltatás legfelső szintű kezelőfelületéhez. A normál alkalmazásoknak erre soha nincs szükségük.",
        "permdesc_bindNotificationListenerService": "Lehetővé teszi a használó számára, hogy csatlakozzon egy értesítésfigyelő szolgáltatás legfelső szintű felületéhez. A normál alkalmazásoknak erre soha nincs szükségük.",
        "permdesc_bind_connection_service": "Lehetővé teszi, hogy az alkalmazás a telefonos szolgáltatásokkal együttműködve hívásokat kezdeményezzen/fogadjon.",
        "permdesc_bind_incall_service": "Lehetővé teszi, hogy az alkalmazás felügyelje, a felhasználók mikor és hogyan láthatják a hívás közbeni képernyőt.",
        "permdesc_bluetooth": "Lehetővé teszi az alkalmazás számára a telefonon lévő Bluetooth beállításainak megtekintését, valamint kapcsolatok kezdeményezését és fogadását a párosított eszközökkel.",
        "permdesc_bluetoothAdmin": "Lehetővé teszi az alkalmazás számára, hogy konfigurálja a helyi Bluetooth telefont, valamint hogy távoli eszközöket fedezzen fel és párosítson.",
        "permdesc_bodySensors": "Engedélyezi az alkalmazásnak, hogy hozzáférjen az Ön fizikai állapotát – például a pulzusszámát – figyelő érzékelők adataihoz.",
        "permdesc_broadcastSticky": "Lehetővé teszi az alkalmazás számára ragadós üzenetek küldését, amelyek a sugárzás után is megmaradnak. A túlzott használat lelassíthatja vagy instabillá teheti a telefont a nagymértékű memóriahasználattal.",
        "permdesc_callCompanionApp": "Engedélyezi az alkalmazásnak az eszközön folyamatban lévő hívások megtekintését és vezérlését. Ebbe beletartoznak az olyan információk is, mint a hívásban részt vevő felek hívószáma és a hívások állapota.",
        "permdesc_callPhone": "Lehetővé teszi az alkalmazás számára, hogy az Ön jóváhagyása nélkül hívjon fel telefonszámokat. Ennek eredményeként váratlan terhelésekkel vagy telefonhívásokkal találkozhat. Vegye figyelembe, hogy ez nem teszi lehetővé segélyhívó számok hívását az alkalmazás számára. A rosszindulatú alkalmazások az Ön jóváhagyása nélkül kezdeményezhetnek hívásokat, így költségek merülhetnek fel.",
        "permdesc_camera": "Az alkalmazás a kamera használatával bármikor készíthet fényképeket és rögzíthet videókat.",
        "permdesc_changeNetworkState": "Lehetővé teszi az alkalmazás számára a hálózati csatlakoztathatóság állapotának módosítását.",
        "permdesc_changeTetherState": "Lehetővé teszi az alkalmazás számára a megosztott hálózati csatlakoztathatóság állapotának módosítását.",
        "permdesc_changeWifiMulticastState": "Lehetővé teszi az alkalmazás számára, hogy olyan csomagokat fogadjon, amelyeket nem csak a telefonjának, hanem egy Wi-Fi hálózat minden eszközének elküldtek többirányú címek használatával. Több energiát használ, mint a nem többirányú üzemmód.",
        "permdesc_changeWifiState": "Lehetővé teszi az alkalmazás számára, hogy kapcsolódjon Wi-Fi hozzáférési pontokhoz, illetve megszüntesse a kapcsolatot velük, valamint hogy módosítsa az egyes eszközök Wi-Fi beállításait.",
        "permdesc_changeWimaxState": "Lehetővé teszi az alkalmazás számára, hogy a telefont csatlakoztassa WiMAX-hálózathoz vagy leválassza azt róla.",
        "permdesc_connection_manager": "Engedélyezi az alkalmazásnak a telekommunikációs kapcsolatok kezelését.",
        "permdesc_control_incall_experience": "Lehetővé teszi, hogy az alkalmazás hívás közbeni felhasználói élményt biztosítson.",
        "permdesc_createNetworkSockets": "Lehetővé teszi az alkalmazás számára hálózati szoftvercsatornák létrehozását, valamint egyéni hálózati protokollok használatát. A böngésző és egyéb alkalmazások lehetővé teszik adatok küldését az internetre, így ez az engedély nem szükséges az internetre való adatküldéshez.",
        "permdesc_disableKeyguard": "Lehetővé teszi az alkalmazás számára a billentyűzár és bármely kapcsolódó jelszavas védelem kikapcsolását. Például a telefon feloldja a billentyűzárat bejövő hívás esetén, majd újra bekapcsolja azt a hívás végeztével.",
        "permdesc_enableCarMode": "Lehetővé teszi az alkalmazás számára a gépkocsi üzemmód bekapcsolását.",
        "permdesc_expandStatusBar": "Lehetővé teszi az alkalmazás számára, hogy váltson az állapotsor részletes és listanézete között.",
        "permdesc_foregroundService": "Engedélyezi az alkalmazásnak az előtérben lévő szolgáltatások használatát.",
        "permdesc_getAccounts": "Lehetővé teszi az alkalmazás számára a telefon által ismert hálózatok listájának lekérését; beleértve a telepített alkalmazások által létrehozott bármely fiókot.",
        "permdesc_getPackageSize": "Lehetővé teszi az alkalmazás számára a kód, az adatok és a gyorsítótár-méret lekérését",
        "permdesc_getTasks": "Lehetővé teszi az alkalmazás számára a jelenleg futó és nemrég befejezett feladatokkal kapcsolatos információk lekérését. Ezáltal az alkalmazás engedélyt kap az eszközön használt alkalmazásokkal kapcsolatos információk felderítésére.",
        "permdesc_handoverStatus": "Lehetővé teszi az alkalmazás számára a folyamatban lévő Android Beam-átvitelekről szóló információk fogadását",
        "permdesc_imagesWrite": "Engedélyezi az alkalmazásnak a fényképgyűjtemény módosítását.",
        "permdesc_install_shortcut": "Lehetővé teszi egy alkalmazás számára, hogy felhasználói beavatkozás nélkül adjon hozzá parancsikonokat a kezdőképernyőhöz.",
        "permdesc_invokeCarrierSetup": "Lehetővé teszi a használó számára a szolgáltató által biztosított konfigurációs alkalmazás hívását. A normál alkalmazásoknak erre soha nincs szükségük.",
        "permdesc_killBackgroundProcesses": "Lehetővé teszi az alkalmazás számára, hogy megszüntesse más alkalmazások háttérben zajló folyamatait. Így előfordulhat, hogy egyes alkalmazások bezárulnak.",
        "permdesc_manageFace": "Engedélyezi, hogy az alkalmazás arcsablon-hozzáadási és -törlési metódusokat hívjon.",
        "permdesc_manageFingerprint": "Lehetővé teszi az alkalmazás számára a használni kívánt ujjlenyomatsablonok hozzáadására és törlésére szolgáló metódusok indítását.",
        "permdesc_manageNetworkPolicy": "Lehetővé teszi az alkalmazás számára, hogy kezelje a hálózati irányelveket és meghatározza az alkalmazásspecifikus szabályokat.",
        "permdesc_manageOwnCalls": "A telefonálási élmény javítása érdekében lehetővé teszi az alkalmazás számára a rendszeren keresztüli hívásirányítást.",
        "permdesc_manageProfileAndDeviceOwners": "Lehetővé teszi, hogy az alkalmazások beállítsák a profil- és az eszköztulajdonosokat.",
        "permdesc_mediaLocation": "Engedélyezi az alkalmazásnak a helyek médiagyűjteményből való olvasását.",
        "permdesc_modifyAudioSettings": "Lehetővé teszi az alkalmazás számára az általános hangbeállítások, például a hangerő és a használni kívánt kimeneti hangszóró módosítását.",
        "permdesc_modifyNetworkAccounting": "Lehetővé teszi az alkalmazás számára annak módosítását, hogy a hálózathasználatot hogyan számolják el az alkalmazások esetében. Normál alkalmazások nem használhatják.",
        "permdesc_nfc": "Lehetővé teszi az alkalmazás számára, hogy NFC (Near Field Communication - kis hatósugarú vezeték nélküli kommunikáció) technológiát használó címkékkel, kártyákkal és leolvasókkal kommunikáljon.",
        "permdesc_persistentActivity": "Lehetővé teszi az alkalmazás számára, hogy egyes részeit állandó jelleggel eltárolja a memóriában. Ez korlátozhatja a többi alkalmazás számára rendelkezésre álló memóriát, és lelassíthatja a telefont.",
        "permdesc_processOutgoingCalls": "Lehetővé teszi, hogy az alkalmazás kimenő híváskor lássa a tárcsázott számot, valamint a hívást átirányítsa egy másik számra, vagy megszakítsa.",
        "permdesc_readCalendar": "Az alkalmazás olvashatja a telefonon tárolt összes naptáreseményt, és megoszthatja vagy mentheti a naptáradatokat.",
        "permdesc_readCallLog": "Az alkalmazás olvashatja az Ön híváslistáját.",
        "permdesc_readCellBroadcasts": "Lehetővé teszi az alkalmazás számára az eszközre érkező cellán belüli üzenetek olvasását. Bizonyos helyeken figyelmeztető üzeneteket kaphat a cellán belül a vészhelyzetekről. A rosszindulatú alkalmazások befolyásolhatják az eszköz teljesítményét vagy működését vészhelyzeti cellaüzenet érkezésekor.",
        "permdesc_readContacts": "Lehetővé teszi az alkalmazás számára a telefonon tárolt névjegyekre vonatkozó összes adat -- például az egyes személyekkel telefonon, e-mailben vagy más módon folytatott kommunikáció gyakoriságára vonatkozó adatok -- beolvasását. Az engedéllyel rendelkező alkalmazások menthetik a névjegyadatokat, és a rosszindulatú alkalmazások az Ön tudta nélkül oszthatják meg a névjegyadatokat.",
        "permdesc_readHistoryBookmarks": "Lehetővé teszi az alkalmazás számára, hogy beolvassa a böngésző által korábban felkeresett összes URL-t és a böngésző könyvjelzőit. Megjegyzés: előfordulhat, hogy ezt az engedélyt harmadik felek által üzemeltetett böngészők vagy egyéb böngészésre képes alkalmazások nem léptetik életbe.",
        "permdesc_readInstallSessions": "Engedélyezi az alkalmazásnak a telepítési munkamenetek olvasását. Ezáltal részleteket kaphat az egyes csomagok éppen folyamatban lévő telepítéséről.",
        "permdesc_readNetworkUsageHistory": "Lehetővé teszi az alkalmazás számára a hálózathasználati előzmények beolvasását adott hálózatok és alkalmazások esetében.",
        "permdesc_readPhoneNumbers": "Engedélyezi az alkalmazás számára az eszköz telefonszámaihoz való hozzáférést.",
        "permdesc_readPhoneState": "Lehetővé teszi az alkalmazás számára, hogy hozzáférjen az eszköz telefonálási funkcióihoz. Az engedéllyel rendelkező alkalmazás meghatározhatja a telefonszámot és eszközazonosítókat, hogy egy hívás aktív-e, valamint híváskor a másik fél telefonszámát.",
        "permdesc_readSms": "Az alkalmazás olvashatja a telefonon tárolt összes SMS-t (szöveges üzenetet).",
        "permdesc_readSyncSettings": "Lehetővé teszi az alkalmazás számára egy fiók szinkronizálási beállításainak beolvasását. Például ellenőrizheti, hogy a Személyek alkalmazás szinkronizálva van-e egy fiókkal.",
        "permdesc_readSyncStats": "Lehetővé teszi az alkalmazás számára egy fiók szinkronizálási statisztikáinak a beolvasását, beleértve a szinkronizálási események előzményeit, valamint a szinkronizált adatok mennyiségét.",
        "permdesc_receiveBootCompleted": "Lehetővé teszi az alkalmazás számára, hogy elindítsa magát a rendszerindítás befejezése után. Ez meghosszabbíthatja a telefon elindításának idejét, az állandó futás miatt pedig lelassíthatja a telefont.",
        "permdesc_receiveMms": "Lehetővé teszi az alkalmazás számára, hogy MMS-eket fogadjon és dolgozzon fel. Ez azt jelenti, hogy az alkalmazás megfigyelheti vagy törölheti a beérkező üzeneteket anélkül, hogy Ön látná azokat.",
        "permdesc_receiveSms": "Lehetővé teszi az alkalmazás számára, hogy SMS-eket fogadjon és dolgozzon fel. Ez azt jelenti, hogy az alkalmazás megfigyelheti vagy törölheti a beérkező üzeneteket anélkül, hogy Ön látná azokat.",
        "permdesc_receiveWapPush": "Lehetővé teszi az alkalmazás számára, hogy WAP-üzeneteket fogadjon és dolgozzon fel. Ez azt is jelenti, hogy az alkalmazás megfigyelheti vagy törölheti a beérkező üzeneteket anélkül, hogy Ön látná azokat.",
        "permdesc_recordAudio": "Az alkalmazás a mikrofon használatával bármikor készíthet hangfelvételt.",
        "permdesc_register_call_provider": "Engedélyezi az alkalmazásnak új telekommunikációs kapcsolatok regisztrálását.",
        "permdesc_register_sim_subscription": "Engedélyezi az alkalmazásnak új telekommunikációs SIM kapcsolatok regisztrálását.",
        "permdesc_removeDrmCertificates": "Lehetővé teszi, hogy az alkalmazás eltávolítsa a DRM-tanúsítványokat. A normál alkalmazásoknak erre soha nincs szükségük.",
        "permdesc_reorderTasks": "Lehetővé teszi az alkalmazás számára, hogy feladatokat helyezzen át az előtérből a háttérbe és fordítva. Az alkalmazás ezt az Ön jóváhagyása nélkül is megteheti.",
        "permdesc_requestDeletePackages": "Lehetővé teszi az alkalmazás számára, hogy csomagok törlését kérje.",
        "permdesc_requestIgnoreBatteryOptimizations": "Az alkalmazás engedélyt kérhet az akkumulátoroptimalizálási beállítások mellőzésére.",
        "permdesc_requestInstallPackages": "Lehetővé teszi az alkalmazás számára csomagok telepítésének kérését.",
        "permdesc_requestPasswordComplexity": "Lehetővé teszi az alkalmazás számára, hogy megismerje a képernyőzár összetettségi szintjét (magas, közepes, alacsony vagy nincs), amely jelzi a képernyőzár lehetséges típusát és hosszát. Az alkalmazás ezenkívül javaslatot tehet a felhasználóknak a képernyőzár bizonyos szintre való frissítésére, de ezt a javaslatot a felhasználók figyelmen kívül hagyhatják. A képernyőzárat nem egyszerű szöveges formátumban tárolja a rendszer, ezért az alkalmazás nem fogja tudni a pontos jelszót.",
        "permdesc_route_media_output": "Lehetővé teszi az alkalmazás számára, hogy más külső eszközökre irányítsa a médiafájlok lejátszását.",
        "permdesc_runInBackground": "Ez az alkalmazás futhat a háttérben. Ez gyorsabban merítheti az akkumulátort.",
        "permdesc_sdcardRead": "Engedélyezi az alkalmazásnak a közös tárhely tartalmainak olvasását.",
        "permdesc_sdcardWrite": "Engedélyezi az alkalmazás számára a közös tárhely tartalmainak felülírását.",
        "permdesc_sendSms": "Lehetővé teszi az alkalmazás számára, hogy SMS-eket küldjön. Ennek eredményeként váratlan terhelésekkel találkozhat. A rosszindulatú alkalmazások az Ön jóváhagyása nélkül küldhetnek üzeneteket, így költségek merülhetnek fel.",
        "permdesc_setAlarm": "Lehetővé teszi az alkalmazás számára, hogy ébresztőt állítson be egy telepített ébresztőóra alkalmazásban. Egyes ilyen alkalmazásokban lehet, hogy nem működik ez a funkció.",
        "permdesc_setInputCalibration": "Lehetővé teszi, hogy az alkalmazás módosítsa az érintőképernyő kalibrációs paramétereit. A normál alkalmazásoknál erre elvileg soha nincs szükség.",
        "permdesc_setTimeZone": "Lehetővé teszi az alkalmazás számára, hogy módosítsa a telefon időzónáját.",
        "permdesc_setWallpaper": "Lehetővé teszi az alkalmazás számára, hogy beállítása a rendszer háttérképét.",
        "permdesc_setWallpaperHints": "Lehetővé teszi az alkalmazás számára, hogy beállítsa a rendszer háttérképének méretével kapcsolatos tippeket.",
        "permdesc_sim_communication": "Engedélyezi, hogy az alkalmazás parancsokat küldjön a SIM kártyára. Ez rendkívül veszélyes lehet.",
        "permdesc_startViewPermissionUsage": "Lehetővé teszi a felhasználó számára, hogy elindítsa az alkalmazás engedélyhasználatát. A normál alkalmazásoknak erre soha nincs szükségük.",
        "permdesc_statusBar": "Lehetővé teszi az alkalmazás számára az állapotsor kikapcsolását, illetve rendszerikonok hozzáadását és eltávolítását.",
        "permdesc_statusBarService": "Lehetővé teszi az alkalmazás számára, hogy az állapotsoron legyen.",
        "permdesc_subscribedFeedsRead": "Lehetővé teszi az alkalmazás számára, hogy részleteket kapjon a jelenleg szinkronizált hírcsatornákról.",
        "permdesc_systemAlertWindow": "Az alkalmazás megjelenhet más alkalmazások fölött vagy a képernyő más részein. Ez befolyásolhatja a megszokott alkalmazáshasználatot, és módosíthatja más alkalmazások megjelenésének módját.",
        "permdesc_transmitIr": "Engedélyezi, hogy az alkalmazás használhassa a telefon infravörös érzékelőjét.",
        "permdesc_uninstall_shortcut": "Lehetővé teszi egy alkalmazás számára, hogy felhasználói beavatkozás nélkül távolítson el parancsikonokat a kezdőképernyőről.",
        "permdesc_useBiometric": "Lehetővé teszi az alkalmazás számára a biometrikus hardver hitelesítésre való használatát",
        "permdesc_useDataInBackground": "Ez az alkalmazás használhat adatkapcsolatot a háttérben. Ez növelheti az adathasználatot.",
        "permdesc_useFaceAuthentication": "Engedélyezi, hogy az alkalmazás hitelesítésre használja az arcfelismerő hardvert",
        "permdesc_useFingerprint": "Lehetővé teszi az alkalmazás számára az ujjlenyomat-olvasó hardver hitelesítésre való használatát",
        "permdesc_use_sip": "SIP-hívások indításának és fogadásának engedélyezése az alkalmazás számára.",
        "permdesc_vibrate": "Lehetővé teszi az alkalmazás számára a rezgés vezérlését.",
        "permdesc_videoWrite": "Engedélyezi az alkalmazásnak a videógyűjtemény módosítását.",
        "permdesc_wakeLock": "Lehetővé teszi az alkalmazás számára, hogy megakadályozza, hogy a telefon alvó üzemmódra váltson.",
        "permdesc_writeCalendar": "Az alkalmazás hozzáadhatja, eltávolíthatja vagy módosíthatja a telefonon található naptáreseményeket. Az alkalmazás olyan üzeneteket küldhet, amelyekről úgy tűnhet, hogy a naptár tulajdonosaitól származnak, illetve a tulajdonosok értesítése nélkül módosíthat eseményeket.",
        "permdesc_writeCallLog": "Lehetővé teszi, hogy az alkalmazás módosítsa a telefon híváslistáját, beleértve a bejövő és kimenő hívások adatait is. A rosszindulatú alkalmazások ezt arra használhatják, hogy híváslistáját töröljék vagy módosítsák.",
        "permdesc_writeContacts": "Lehetővé teszi az alkalmazás számára a telefonon tárolt névjegyekre vonatkozó adatok -- például az egyes személyekkel telefonon, e-mailben vagy más módon folytatott kommunikáció gyakoriságára vonatkozó adatok -- módosítását. Az engedéllyel rendelkező alkalmazás törölheti a névjegyadatokat.",
        "permdesc_writeGeolocationPermissions": "Lehetővé teszi az alkalmazás számára, hogy módosítsa a böngésző helymeghatározási engedélyeit. Rosszindulatú alkalmazások ezt arra használhatják, hogy a helyére vonatkozó információkat küldjenek tetszőleges webhelyeknek.",
        "permdesc_writeHistoryBookmarks": "Lehetővé teszi az alkalmazás számára, hogy módosítsa a böngésző előzményeit vagy a telefonon tárolt könyvjelzőket. Az engedéllyel rendelkező alkalmazás törölheti vagy módosíthatja a böngésző adatait. Megjegyzés: előfordulhat, hogy ezt az engedélyt harmadik felek által üzemeltetett böngészők vagy egyéb böngészésre képes alkalmazások nem léptetik életbe.",
        "permdesc_writeSettings": "Lehetővé teszi az alkalmazás számára a rendszer beállítási adatainak módosítását. A rosszindulatú alkalmazások tönkretehetik a rendszer konfigurációját.",
        "permdesc_writeSyncSettings": "Lehetővé teszi az alkalmazás számára egy fiók szinkronizálási beállításainak módosítását. Például ezzel engedélyezni lehet a Személyek alkalmazás szinkronizálását egy fióknál.",
        "permgroupbackgroundrequest_location": "Engedélyezi a(z) <b>",
        "permgroupbackgroundrequestdetail_location": "Az alkalmazás jelenleg csak akkor férhet hozzá a helyadatokhoz, amikor Ön használja az alkalmazást",
        "permgroupdesc_activityRecognition": "hozzáférés a testmozgási adatokhoz",
        "permgroupdesc_calendar": "hozzáférés a naptárhoz",
        "permgroupdesc_calllog": "hívásnapló olvasása és írása",
        "permgroupdesc_camera": "fotók és videók készítése",
        "permgroupdesc_contacts": "hozzáférés a névjegyekhez",
        "permgroupdesc_location": "hozzáférés az eszköz földrajzi helyéhez",
        "permgroupdesc_microphone": "hanganyag rögzítése",
        "permgroupdesc_phone": "telefonhívások kezdeményezése és kezelése",
        "permgroupdesc_sensors": "az érzékelők által mért, életjelekkel kapcsolatos adatok elérése",
        "permgroupdesc_sms": "SMS-ek küldése és megtekintése",
        "permgroupdesc_storage": "az eszközön lévő fotók, médiatartalmak és fájlok elérése",
        "permgrouplab_activityRecognition": "Testmozgás",
        "permgrouplab_calendar": "Naptár",
        "permgrouplab_calllog": "Hívásnaplók",
        "permgrouplab_camera": "Fényképezőgép",
        "permgrouplab_contacts": "Névjegyek",
        "permgrouplab_location": "Helyadatok",
        "permgrouplab_microphone": "Mikrofon",
        "permgrouplab_phone": "Telefon",
        "permgrouplab_sensors": "Testérzékelők",
        "permgrouplab_sms": "SMS",
        "permgrouplab_storage": "Tárhely",
        "permgrouprequest_activityRecognition": "Engedélyezi a(z) <b>",
        "permgrouprequest_calendar": "Engedélyezi a(z) <b>",
        "permgrouprequest_calllog": "Engedélyezi, hogy a(z) <b>",
        "permgrouprequest_camera": "Engedélyezi a(z) <b>",
        "permgrouprequest_contacts": "Engedélyezi a(z) <b>",
        "permgrouprequest_location": "Engedélyezi a(z) <b>",
        "permgrouprequest_microphone": "Engedélyezi a(z) <b>",
        "permgrouprequest_phone": "Engedélyezi a(z) <b>",
        "permgrouprequest_sensors": "Engedélyezi a(z) <b>",
        "permgrouprequest_sms": "Engedélyezi a(z) <b>",
        "permgrouprequest_storage": "Engedélyezi a(z) <b>",
        "permgrouprequestdetail_location": "Az alkalmazás csak akkor férhet hozzá a helyadatokhoz, amikor Ön használja az alkalmazást",
        "permlab_acceptHandover": "Másik alkalmazásból indított hívás folytatása",
        "permlab_accessBackgroundLocation": "Hozzáférés a helyadatokhoz a háttérben",
        "permlab_accessCoarseLocation": "hozzávetőleges (hálózaton alapuló) helyadatokhoz való hozzáférés csak előtérben",
        "permlab_accessDrmCertificates": "DRM-tanúsítványokhoz való hozzáférés",
        "permlab_accessFineLocation": "pontos helyadatokhoz való hozzáférés csak előtérben",
        "permlab_accessImsCallService": "hozzáférés az IMS-hívásszolgáltatáshoz",
        "permlab_accessLocationExtraCommands": "további helyszolgáltatói parancsok elérése",
        "permlab_accessNetworkConditions": "hálózati körülményekkel kapcsolatos észrevételek figyelemmel kísérése",
        "permlab_accessNetworkState": "hálózati kapcsolatok megtekintése",
        "permlab_accessNotifications": "hozzáférési értesítések",
        "permlab_accessWifiState": "Wi-Fi kapcsolatok megtekintése",
        "permlab_accessWimaxState": "WiMAX-kapcsolódás és a kapcsolat bontása",
        "permlab_access_notification_policy": "hozzáférés a „Ne zavarjanak” funkcióhoz",
        "permlab_activityRecognition": "testmozgás felismerése",
        "permlab_addVoicemail": "hangposta hozzáadása",
        "permlab_answerPhoneCalls": "válaszol a hívásokra",
        "permlab_audioWrite": "a zenei gyűjtemény módosítása",
        "permlab_bindCarrierMessagingService": "kapcsolódás egy üzenetszolgáltatáshoz",
        "permlab_bindCarrierServices": "kapcsolódás szolgáltatókhoz",
        "permlab_bindConditionProviderService": "csatlakozás egy feltételbiztosító szolgáltatáshoz",
        "permlab_bindDreamService": "csatlakozás egy képernyővédő szolgáltatáshoz",
        "permlab_bindNotificationListenerService": "csatlakozzon értesítésfigyelő szolgáltatáshoz",
        "permlab_bind_connection_service": "együttműködés a telefonos szolgáltatásokkal",
        "permlab_bind_incall_service": "interakció a hívás közbeni képernyővel",
        "permlab_bluetooth": "Bluetooth-eszközök párosítása",
        "permlab_bluetoothAdmin": "Bluetooth-beállítások elérése",
        "permlab_bodySensors": "hozzáférés a testérzékelőkhöz (például pulzusmérők)",
        "permlab_broadcastSticky": "ragadós üzenet küldése",
        "permlab_callCompanionApp": "Hívások megtekintése és vezérlése a rendszeren keresztül.",
        "permlab_callPhone": "telefonszámok közvetlen hívása",
        "permlab_camera": "fotók és videók készítése",
        "permlab_changeNetworkState": "hálózati csatlakoztathatóság módosítása",
        "permlab_changeTetherState": "megosztott csatlakoztathatóság módosítása",
        "permlab_changeWifiMulticastState": "Wi-Fi multicast vétel engedélyezése",
        "permlab_changeWifiState": "kapcsolódás Wi-Fi-hez és a kapcsolat bontása",
        "permlab_changeWimaxState": "WiMAX-állapot módosítása",
        "permlab_connection_manager": "telekommunikációs kapcsolatok kezelése",
        "permlab_control_incall_experience": "hívás közbeni felhasználói élmény biztosítása",
        "permlab_createNetworkSockets": "teljes hálózati hozzáférés",
        "permlab_disableKeyguard": "képernyőzár kikapcsolása",
        "permlab_enableCarMode": "gépkocsi üzemmód bekapcsolása",
        "permlab_expandStatusBar": "állapotsáv részletes- és listanézete",
        "permlab_foregroundService": "előtérben lévő szolgáltatás futtatása",
        "permlab_getAccounts": "fiókok keresése az eszközön",
        "permlab_getPackageSize": "alkalmazás-tárhely felmérése",
        "permlab_getTasks": "futó alkalmazások lekérése",
        "permlab_handoverStatus": "android Beam-átviteli állapot fogadása",
        "permlab_imagesWrite": "a fényképgyűjtemény módosítása",
        "permlab_install_shortcut": "parancsikonok telepítése",
        "permlab_invokeCarrierSetup": "a szolgáltatói konfigurációs alkalmazás hívása",
        "permlab_killBackgroundProcesses": "más alkalmazások bezárása",
        "permlab_manageFace": "arcfelismerő hardver kezelése",
        "permlab_manageFingerprint": "ujjlenyomat-olvasó hardver kezelése",
        "permlab_manageNetworkPolicy": "hálózati házirend kezelése",
        "permlab_manageOwnCalls": "rendszeren keresztüli hívásirányítás",
        "permlab_manageProfileAndDeviceOwners": "profil és eszköztulajdonosok kezelése",
        "permlab_mediaLocation": "helyek olvasása a médiagyűjteményből",
        "permlab_modifyAudioSettings": "hangbeállítások módosítása",
        "permlab_modifyNetworkAccounting": "hálózathasználat elszámolásának módosítása",
        "permlab_nfc": "NFC technológia vezérlése",
        "permlab_persistentActivity": "az alkalmazás állandó futtatása",
        "permlab_processOutgoingCalls": "kimenő hívások átirányítása",
        "permlab_readCalendar": "Naptáresemények és a naptári adatok olvasása",
        "permlab_readCallLog": "Híváslista beolvasása",
        "permlab_readCellBroadcasts": "cellán belüli üzenetek olvasása",
        "permlab_readContacts": "saját névjegyek olvasása",
        "permlab_readHistoryBookmarks": "internetes könyvjelzők és előzmények olvasása",
        "permlab_readInstallSessions": "telepítési munkamenetek olvasása",
        "permlab_readNetworkUsageHistory": "hálózathasználati előzmények beolvasása",
        "permlab_readPhoneNumbers": "telefonszámok olvasása",
        "permlab_readPhoneState": "telefonállapot és azonosító olvasása",
        "permlab_readSms": "szöveges üzenetek (SMS vagy MMS) olvasása",
        "permlab_readSyncSettings": "szinkronizálási beállítások olvasása",
        "permlab_readSyncStats": "szinkronizálási statisztikák olvasása",
        "permlab_receiveBootCompleted": "futtatás indításkor",
        "permlab_receiveMms": "szöveges üzenetek (MMS) fogadása",
        "permlab_receiveSms": "szöveges üzenetek (SMS) fogadása",
        "permlab_receiveWapPush": "szöveges üzenetek (WAP) fogadása",
        "permlab_recordAudio": "hanganyag rögzítése",
        "permlab_register_call_provider": "új telekommunikációs kapcsolatok regisztrálása",
        "permlab_register_sim_subscription": "új telekommunikációs SIM kapcsolatok regisztrálása",
        "permlab_removeDrmCertificates": "DRM-tanúsítványok eltávolítása",
        "permlab_reorderTasks": "futó alkalmazások átrendezése",
        "permlab_requestDeletePackages": "csomagok törlésének kérése",
        "permlab_requestIgnoreBatteryOptimizations": "Akkumulátoroptimalizálási beállítások mellőzésének kérése",
        "permlab_requestInstallPackages": "telepítőcsomagok kérése",
        "permlab_requestPasswordComplexity": "képernyőzár összetettségi szintjének lekérése",
        "permlab_route_media_output": "médiafájlok kimenetének irányítása",
        "permlab_runInBackground": "futás a háttérben",
        "permlab_sdcardRead": "közös tárhely olvasása",
        "permlab_sdcardWrite": "a közös tárhely tartalmainak törlése és módosítása",
        "permlab_sendSms": "SMS-ek küldése és megtekintése",
        "permlab_setAlarm": "ébresztés beállítása",
        "permlab_setInputCalibration": "beviteli eszköz kalibrációjának módosítása",
        "permlab_setTimeZone": "időzóna beállítása",
        "permlab_setWallpaper": "háttérkép beállítása",
        "permlab_setWallpaperHints": "háttérkép méretének módosítása",
        "permlab_sim_communication": "parancsok küldése a SIM-kártyára",
        "permlab_startViewPermissionUsage": "engedélyhasználat megtekintésének elindítása",
        "permlab_statusBar": "állapotsor kikapcsolása vagy módosítása",
        "permlab_statusBarService": "az állapotsor szerepének átvétele",
        "permlab_subscribedFeedsRead": "feliratkozott hírcsatornák olvasása",
        "permlab_systemAlertWindow": "Az alkalmazás megjelenhet más alkalmazások fölött",
        "permlab_transmitIr": "infravörös érzékelő",
        "permlab_uninstall_shortcut": "parancsikonok eltávolítása",
        "permlab_useBiometric": "biometrikus hardver használata",
        "permlab_useDataInBackground": "adathasználat a háttérben",
        "permlab_useFaceAuthentication": "arcfelismerő hardver használata",
        "permlab_useFingerprint": "ujjlenyomat-olvasó hardver használata",
        "permlab_use_sip": "SIP-hívások indítása/fogadása",
        "permlab_vibrate": "rezgés szabályozása",
        "permlab_videoWrite": "a videógyűjtemény módosítása",
        "permlab_wakeLock": "telefon alvó üzemmódjának megakadályozása",
        "permlab_writeCalendar": "naptári események hozzáadása vagy módosítása, e-mailek küldése a vendégeknek a tulajdonosok tudomása nélkül",
        "permlab_writeCallLog": "Híváslista készítése",
        "permlab_writeContacts": "kapcsolatok módosítása",
        "permlab_writeGeolocationPermissions": "a böngésző helymeghatározási engedélyeinek módosítása",
        "permlab_writeHistoryBookmarks": "internetes könyvjelzők és előzmények írása",
        "permlab_writeSettings": "rendszerbeállítások módosítása",
        "permlab_writeSyncSettings": "szinkronizálás be-és kikapcsolása"
    },
    "sidebars": {
        "donate": {
            "bank_transfer_name": "Név",
            "bitcoin_alt": "Adományozás Bitcoin használatával",
            "flattr_alt": "Adományozás Flattr használatával",
            "heading": "Adományozás",
            "hellotux": "👕 Pólók 👕 innen:",
            "hellotux_alt": "HELLOTUX",
            "hellotux_donation": "Az F-Droid 3€-t kap minden eladott póló után.",
            "liberapay_alt": "Adományozás Liberapay használatával",
            "litecoin_alt": "Adományozás Litecoin használatával",
            "paypal_alt": "Adományozás PayPal használatával",
            "powered_by_donations": "Az F-Droid az Ön adományából tartja fenn magát!",
            "via_bank_transfer": "Banki átutalás"
        },
        "lang": {
            "change": "Módosítás"
        },
        "last_updated": {
            "heading": "Utoljára frissítve"
        },
        "latest_packages": {
            "heading": "Legfrissebb alkalmazások"
        },
        "news": {
            "heading": "Hírek"
        },
        "search": {
            "heading": "Alkalmazások keresése",
            "noscript": "JavaScript engedélyezése szükséges",
            "search": "Keresés"
        }
    }
}
