{
  "app_categories": {
    "Connectivity": "Կապ",
    "Development": "Ծրագրավորում",
    "Games": "Խաղեր",
    "Graphics": "Գրաֆիկա",
    "Internet": "Ցանց",
    "Money": "Փող",
    "Multimedia": "Մուլտիմեդիա",
    "Navigation": "Կողմնորոշում",
    "Phone & SMS": "Հեռախոս և կարճ հաղորդագրություն",
    "Reading": "Ընթերցում",
    "Science & Education": "Կրթություն և գիտություն",
    "Security": "Անվտանգություն",
    "Sports & Health": "Սպորտ և առողջություն",
    "System": "Համակարգ",
    "Theming": "Ոճ",
    "Time": "Ժամանակ",
    "Writing": "Տեքստ"
  }
}
